src/dump.vcd
$date
	Sun Dec 04 18:24:00 2022
$end
$version
	Icarus Verilog
$end
$timescale
	10ps
$end
$scope module tb $end
$scope module uut $end
$var wire 1 ! clk $end
$var wire 1 " reset $end
$var wire 32 # imem_data [31:0] $end
$var wire 32 $ imem_addr [31:0] $end
$var wire 1 % dmem_we $end
$var wire 32 & dmem_wdata [31:0] $end
$var wire 32 ' dmem_rdata [31:0] $end
$var wire 32 ( dmem_addr [31:0] $end
$scope module dmem_inst $end
$var wire 1 ! clk $end
$var wire 32 ) rdata [31:0] $end
$var wire 1 % we $end
$var wire 32 * wdata [31:0] $end
$var wire 32 + addr [31:0] $end
$upscope $end
$scope module imem_inst $end
$var wire 6 , addr [5:0] $end
$var reg 32 - data [31:0] $end
$upscope $end
$scope module mips_inst $end
$var wire 1 ! clk $end
$var wire 32 . dmem_rdata [31:0] $end
$var wire 32 / imem_data [31:0] $end
$var wire 1 " rst $end
$var wire 1 0 reg_write $end
$var wire 1 1 reg_dst $end
$var wire 1 2 mem_to_reg $end
$var wire 1 3 jump $end
$var wire 32 4 imem_addr [31:0] $end
$var wire 1 % dmem_we $end
$var wire 32 5 dmem_wdata [31:0] $end
$var wire 32 6 dmem_addr [31:0] $end
$var wire 1 7 branch $end
$var wire 3 8 alucontrol [2:0] $end
$var wire 1 9 alu_src $end
$scope module controller_inst $end
$var wire 32 : instr [31:0] $end
$var wire 1 0 reg_write $end
$var wire 1 1 reg_dst $end
$var wire 1 % mem_write $end
$var wire 1 2 mem_to_reg $end
$var wire 1 3 jump $end
$var wire 1 7 branch $end
$var wire 3 ; alucontrol [2:0] $end
$var wire 1 9 alu_src $end
$scope module aludec_inst $end
$var wire 32 < instr [31:0] $end
$var reg 3 = alucontrol [2:0] $end
$upscope $end
$scope module maindec_inst $end
$var wire 1 9 alu_src $end
$var wire 1 7 branch $end
$var wire 32 > instr [31:0] $end
$var wire 1 ? is_add $end
$var wire 1 @ is_and $end
$var wire 1 A is_or $end
$var wire 1 B is_slt $end
$var wire 1 C is_sub $end
$var wire 1 3 jump $end
$var wire 1 2 mem_to_reg $end
$var wire 1 % mem_write $end
$var wire 1 1 reg_dst $end
$var wire 1 0 reg_write $end
$var wire 6 D opcode [5:0] $end
$var wire 1 E is_sw $end
$var wire 1 F is_lw $end
$var wire 1 G is_j $end
$var wire 1 H is_beq $end
$var wire 1 I is_addi $end
$var wire 6 J func [5:0] $end
$upscope $end
$upscope $end
$scope module datapath_inst $end
$var wire 32 K alu_result [31:0] $end
$var wire 1 9 alu_src $end
$var wire 3 L alucontrol [2:0] $end
$var wire 1 7 branch $end
$var wire 1 ! clk $end
$var wire 32 M instr [31:0] $end
$var wire 1 3 jump $end
$var wire 1 2 mem_to_reg $end
$var wire 1 % mem_write $end
$var wire 1 N pc_src $end
$var wire 32 O read_data [31:0] $end
$var wire 1 1 reg_dst $end
$var wire 1 0 reg_write $end
$var wire 1 " rst $end
$var wire 32 P src_a [31:0] $end
$var wire 32 Q write_data [31:0] $end
$var wire 1 R zero $end
$var wire 5 S write_reg [4:0] $end
$var wire 32 T src_b [31:0] $end
$var wire 6 U rt [5:0] $end
$var wire 32 V result [31:0] $end
$var wire 32 W reg_data2 [31:0] $end
$var wire 32 X reg_data1 [31:0] $end
$var wire 6 Y rd [5:0] $end
$var wire 32 Z pc_plus_4 [31:0] $end
$var wire 32 [ pc_next [31:0] $end
$var wire 32 \ pc_jump [31:0] $end
$var wire 32 ] pc_branch [31:0] $end
$var wire 32 ^ imm_ext [31:0] $end
$var wire 1 _ c_out $end
$var wire 32 ` alu_out [31:0] $end
$var reg 32 a pc [31:0] $end
$scope module alu_inst $end
$var wire 32 b a_in [31:0] $end
$var wire 32 c b_in [31:0] $end
$var wire 3 d f_in [2:0] $end
$var wire 32 e fx00 [31:0] $end
$var wire 32 f fx01 [31:0] $end
$var wire 32 g not_b_in [31:0] $end
$var wire 1 R zero $end
$var wire 32 h y_out [31:0] $end
$var wire 32 i fx11 [31:0] $end
$var wire 32 j fx10 [31:0] $end
$var wire 1 _ c_out $end
$var wire 32 k b_mux_not_b [31:0] $end
$upscope $end
$scope module regfile_inst $end
$var wire 5 l addr1 [4:0] $end
$var wire 5 m addr2 [4:0] $end
$var wire 5 n addr3 [4:0] $end
$var wire 1 ! clk $end
$var wire 1 0 rw $end
$var wire 32 o wdata [31:0] $end
$var reg 32 p data1 [31:0] $end
$var reg 32 q data2 [31:0] $end
$upscope $end
$scope module sign_extend_inst $end
$var wire 16 r idata [15:0] $end
$var reg 32 s odata [31:0] $end
$scope begin proc_sign_extend $end
$upscope $end
$upscope $end
$scope begin proc_pc $end
$upscope $end
$upscope $end
$upscope $end
$upscope $end
$upscope $end
$enddefinitions $end
$comment Show the parameter values. $end
$dumpall
$end
#0
$dumpvars
bx s
bx r
bx q
bx p
bx o
bx n
bx m
bx l
bx k
bx j
b0x i
bx h
bx g
bx f
bx e
bx d
bx c
bx b
bx a
bx `
x_
bx ^
bx ]
bx00 \
bx [
bx Z
b0xxxxx Y
bx X
bx W
bx V
b0xxxxx U
bx T
bx S
xR
bx Q
bx P
bx O
xN
bx M
bx L
bx K
bx J
xI
xH
xG
xF
xE
bx D
xC
xB
xA
x@
x?
bx >
bx =
bx <
bx ;
bx :
x9
bx 8
x7
bx 6
bx 5
bx 4
x3
x2
x1
x0
bx /
bx .
bx -
bx ,
bx +
bx *
bx )
bx (
bx '
bx &
x%
bx $
bx #
1"
0!
$end
#500
b101 V
b101 o
b0 i
0R
b101 (
b101 +
b101 6
b101 K
b101 `
b101 h
01
b101 j
0_
b101 f
b100 [
b11111111111111111111111111111010 g
b101 k
b10 S
b10 n
b0 e
b101 T
b101 c
b11000 ]
10
19
0N
0?
0C
0@
0A
0B
b0 P
b0 b
b0 X
b0 p
b101 ^
b101 s
b10 8
b10 ;
b10 =
b10 L
b10 d
02
0F
0%
0E
07
0H
1I
03
0G
b1000 D
b101 J
b10 U
b0 Y
b0 l
b10 m
b101 r
b100000000000100000000000000101 #
b100000000000100000000000000101 -
b100000000000100000000000000101 /
b100000000000100000000000000101 :
b100000000000100000000000000101 <
b100000000000100000000000000101 >
b100000000000100000000000000101 M
b10000000000000010100 \
b0 ,
b100 Z
b0 $
b0 4
b0 a
1!
#1000
0"
0!
#1500
b11 V
b11 o
b11 (
b11 +
b11 6
b11 K
b11 `
b11 h
b11 j
b11 f
b11111111111111111111111111111100 g
b11 k
b111 S
b111 n
b11 T
b11 c
b11 ^
b11 s
b11 J
b111000000000000001100 \
b111 U
b111 m
b11 r
b1000 [
b100000000001110000000000000011 #
b100000000001110000000000000011 -
b100000000001110000000000000011 /
b100000000001110000000000000011 :
b100000000001110000000000000011 <
b100000000001110000000000000011 >
b100000000001110000000000000011 M
b1 ,
bx &
bx *
bx 5
bx Q
bx W
bx q
b10100 ]
b1000 Z
b100 $
b100 4
b100 a
1!
#2000
0!
#2500
b1100 V
b1100 o
b1100 (
b1100 +
b1100 6
b1100 K
b1100 `
b1100 h
b1100 j
b1100 f
b11111111111111111111111111110011 g
b1100 k
b11 S
b11 n
b1100 T
b1100 c
b1100 ^
b1100 s
b1100 J
b11000000000000110000 \
b11 U
b11 m
b1100 r
b1100 [
b100000000000110000000000001100 #
b100000000000110000000000001100 -
b100000000000110000000000001100 /
b100000000000110000000000001100 :
b100000000000110000000000001100 <
b100000000000110000000000001100 >
b100000000000110000000000001100 M
b10 ,
bx &
bx *
bx 5
bx Q
bx W
bx q
b111100 ]
b1100 Z
b1000 $
b1000 4
b1000 a
1!
#3000
0!
#3500
b111 V
b111 o
b1 e
b111 (
b111 +
b111 6
b111 K
b111 `
b111 h
11
b11111111111111111111111111111010 g
b101 k
09
10
b100 S
b100 n
b111 f
b1000 j
b101 T
b101 c
1A
b11 P
b11 b
b11 X
b11 p
b10000000100101 ^
b10000000100101 s
b1 8
b1 ;
b1 =
b1 L
b1 d
0I
b0 D
b100101 J
b11100010001000000010010100 \
b10 U
b100 Y
b111 l
b10 m
b10000000100101 r
b10000 [
b111000100010000000100101 #
b111000100010000000100101 -
b111000100010000000100101 /
b111000100010000000100101 :
b111000100010000000100101 <
b111000100010000000100101 >
b111000100010000000100101 M
b11 ,
b101 &
b101 *
b101 5
b101 Q
b101 W
b101 q
b1000000010100100 ]
b10000 Z
b1100 $
b1100 4
b1100 a
1!
#4000
0!
#4500
10
b100 V
b100 o
11
b11111111111111111111111111111000 g
b111 k
b100 (
b100 +
b100 6
b100 K
b100 `
b100 h
b101 S
b101 n
b100 e
b1111 f
b10011 j
b111 T
b111 c
1@
0A
b1100 P
b1100 b
b1100 X
b1100 p
b111 &
b111 *
b111 5
b111 Q
b111 W
b111 q
b10100000100100 ^
b10100000100100 s
b0 8
b0 ;
b0 =
b0 L
b0 d
b100100 J
b1100100001010000010010000 \
b100 U
b101 Y
b11 l
b100 m
b10100000100100 r
b10100 [
b11001000010100000100100 #
b11001000010100000100100 -
b11001000010100000100100 /
b11001000010100000100100 :
b11001000010100000100100 <
b11001000010100000100100 >
b11001000010100000100100 M
b100 ,
b1010000010100100 ]
b10100 Z
b10000 $
b10000 4
b10000 a
1!
#5000
0!
#5500
b101 S
b101 n
10
11
b1011 V
b1011 o
0R
b1011 (
b1011 +
b1011 6
b1011 K
b1011 `
b1011 h
b111 f
b1011 j
1?
0@
b100 P
b100 b
b100 X
b100 p
b10100000100000 ^
b10100000100000 s
b10 8
b10 ;
b10 =
b10 L
b10 d
b100000 J
b10100100001010000010000000 \
b101 l
b10100000100000 r
b11000 [
b101001000010100000100000 #
b101001000010100000100000 -
b101001000010100000100000 /
b101001000010100000100000 :
b101001000010100000100000 <
b101001000010100000100000 >
b101001000010100000100000 M
b101 ,
b1010000010011000 ]
b11000 Z
b10100 $
b10100 4
b10100 a
1!
#6000
0!
#6500
00
01
1_
b11111111111111111111111111111100 g
b11111111111111111111111111111100 k
b1000 V
b1000 o
b111 S
b111 n
b11 T
b11 c
b1000 (
b1000 +
b1000 6
b1000 K
b1000 `
b1000 h
0?
b11 &
b11 *
b11 5
b11 Q
b11 W
b11 q
b1000 ^
b1000 s
b110 8
b110 ;
b110 =
b110 L
b110 d
17
1H
b100 D
b1000 J
b10100111000000000000100000 \
b111 U
b0 Y
b111 m
b1000 r
b11100 [
b10000101001110000000000001000 #
b10000101001110000000000001000 -
b10000101001110000000000001000 /
b10000101001110000000000001000 :
b10000101001110000000000001000 <
b10000101001110000000000001000 >
b10000101001110000000000001000 M
b1000 e
b11111111111111111111111111111111 f
b1000 j
b110 ,
b1011 P
b1011 b
b1011 X
b1011 p
b111100 ]
b11100 Z
b11000 $
b11000 4
b11000 a
1!
#7000
0!
#7500
b0 V
b0 o
1R
b0 (
b0 +
b0 6
b0 K
b0 `
b0 h
10
b11111111111111111111111111111000 k
b11111111111111111111111111111000 g
11
b110 S
b110 n
b1000 e
b11111111111111111111111111111100 f
b101 j
b111 T
b111 c
1B
b1100 P
b1100 b
b1100 X
b1100 p
b111 &
b111 *
b111 5
b111 Q
b111 W
b111 q
b11000000101010 ^
b11000000101010 s
b111 8
b111 ;
b111 =
b111 L
b111 d
07
0H
b0 D
b101010 J
b1100100001100000010101000 \
b100 U
b110 Y
b11 l
b100 m
b11000000101010 r
b100000 [
b11001000011000000101010 #
b11001000011000000101010 -
b11001000011000000101010 /
b11001000011000000101010 :
b11001000011000000101010 <
b11001000011000000101010 >
b11001000011000000101010 M
b111 ,
b1100000011001000 ]
b100000 Z
b11100 $
b11100 4
b11100 a
1!
#8000
0!
#8500
b0 V
b0 o
1R
b0 (
b0 +
b0 6
b0 K
b0 `
b0 h
00
b0 i
b11111111111111111111111111111111 k
b11111111111111111111111111111111 g
01
b0 S
b0 n
b0 e
b11111111111111111111111111111111 f
b0 j
1_
b0 T
b0 c
1N
0B
b0 P
b0 b
b0 X
b0 p
b0 &
b0 *
b0 5
b0 Q
b0 W
b0 q
b1 ^
b1 s
b110 8
b110 ;
b110 =
b110 L
b110 d
17
1H
b100 D
b1 J
b11000000000000000000000100 \
b0 U
b0 Y
b110 l
b0 m
b1 r
b101000 [
b10000110000000000000000000001 #
b10000110000000000000000000001 -
b10000110000000000000000000001 /
b10000110000000000000000000001 :
b10000110000000000000000000001 <
b10000110000000000000000000001 >
b10000110000000000000000000001 M
b1000 ,
b101000 ]
b100100 Z
b100000 $
b100000 4
b100000 a
1!
#9000
0!
#9500
b1 V
b1 o
0R
b1 (
b1 +
b1 6
b1 K
b1 `
b1 h
b1 i
0_
b11111111111111111111111111111011 f
10
b11111111111111111111111111111010 k
b11111111111111111111111111111010 g
11
b110 S
b110 n
b10 e
b11111111111111111111111111111110 j
b101 T
b101 c
0N
1B
b11 P
b11 b
b11 X
b11 p
b101 &
b101 *
b101 5
b101 Q
b101 W
b101 q
b11000000101010 ^
b11000000101010 s
b111 8
b111 ;
b111 =
b111 L
b111 d
07
0H
b0 D
b101010 J
b11100010001100000010101000 \
b10 U
b110 Y
b111 l
b10 m
b11000000101010 r
b101100 [
b111000100011000000101010 #
b111000100011000000101010 -
b111000100011000000101010 /
b111000100011000000101010 :
b111000100011000000101010 <
b111000100011000000101010 >
b111000100011000000101010 M
b1010 ,
b1100000011010100 ]
b101100 Z
b101000 $
b101000 4
b101000 a
1!
#10000
0!
#10500
b0 i
b1100 V
b1100 o
b1011 f
b1100 (
b1100 +
b1100 6
b1100 K
b1100 `
b1100 h
10
b1011 k
b11111111111111111111111111110100 g
11
b111 S
b111 n
b1 e
b1100 j
b1011 T
b1011 c
1?
0B
b1 P
b1 b
b1 X
b1 p
b1011 &
b1011 *
b1011 5
b1011 Q
b1011 W
b1011 q
b11100000100000 ^
b11100000100000 s
b10 8
b10 ;
b10 =
b10 L
b10 d
b100000 J
b11000101001110000010000000 \
b101 U
b111 Y
b110 l
b101 m
b11100000100000 r
b110000 [
b110001010011100000100000 #
b110001010011100000100000 -
b110001010011100000100000 /
b110001010011100000100000 :
b110001010011100000100000 <
b110001010011100000100000 >
b110001010011100000100000 M
b1011 ,
b1110000010110000 ]
b110000 Z
b101100 $
b101100 4
b101100 a
1!
#11000
0!
#11500
b111 V
b111 o
b111 (
b111 +
b111 6
b111 K
b111 `
b111 h
1_
b11111111111111111111111111111010 g
b11111111111111111111111111111010 k
b1000 e
b11111111111111111111111111111110 f
b111 j
b101 T
b101 c
0?
1C
b1100 P
b1100 b
b1100 X
b1100 p
b101 &
b101 *
b101 5
b101 Q
b101 W
b101 q
b11100000100010 ^
b11100000100010 s
b110 8
b110 ;
b110 =
b110 L
b110 d
b100010 J
b11100010001110000010001000 \
b10 U
b111 l
b10 m
b11100000100010 r
b110100 [
b111000100011100000100010 #
b111000100011100000100010 -
b111000100011100000100010 /
b111000100011100000100010 :
b111000100011100000100010 <
b111000100011100000100010 >
b111000100011100000100010 M
b1100 ,
b1110000010111100 ]
b110100 Z
b110000 $
b110000 4
b110000 a
1!
#12000
0!
#12500
1R
00
01
b0 i
b0 k
b11111111111111111111111111111111 g
b0 V
b0 o
b0 S
b0 n
0_
b0 T
b0 c
b0 (
b0 +
b0 6
b0 K
b0 `
b0 h
0C
b0 &
b0 *
b0 5
b0 Q
b0 W
b0 q
b1111 ^
b1111 s
b10 8
b10 ;
b10 =
b10 L
b10 d
13
1G
b10 D
b1111 J
b111100 \
b0 U
b0 Y
b0 l
b0 m
b1111 r
b111100 [
b1000000000000000000000001111 #
b1000000000000000000000001111 -
b1000000000000000000000001111 /
b1000000000000000000000001111 :
b1000000000000000000000001111 <
b1000000000000000000000001111 >
b1000000000000000000000001111 M
b0 e
b0 f
b0 j
b1101 ,
b0 P
b0 b
b0 X
b0 p
b1110100 ]
b111000 Z
b110100 $
b110100 4
b110100 a
1!
#13000
0!
#13500
b1001100 V
b1001100 o
0R
b1001100 (
b1001100 +
b1001100 6
b1001100 K
b1001100 `
b1001100 h
b101 e
b11111111111111111111111110111000 g
b1000111 k
b111 S
b111 n
b1000111 f
b1001100 j
b1000111 T
b1000111 c
19
b1000000 [
b101 P
b101 b
b101 X
b101 p
b111 &
b111 *
b111 5
b111 Q
b111 W
b111 q
b1000111 ^
b1000111 s
1%
1E
03
0G
b101011 D
b111 J
b1000111000000000100011100 \
b111 U
b10 l
b111 m
b1000111 r
b10101100010001110000000001000111 #
b10101100010001110000000001000111 -
b10101100010001110000000001000111 /
b10101100010001110000000001000111 :
b10101100010001110000000001000111 <
b10101100010001110000000001000111 >
b10101100010001110000000001000111 M
b1111 ,
b101011100 ]
b1000000 Z
b111100 $
b111100 4
b111100 a
1!
#14000
0!
#14500
1R
b0 V
b0 o
b0 (
b0 +
b0 6
b0 K
b0 `
b0 h
b0 f
b11111111111111111111111111111111 g
b0 k
b0 S
b0 n
b0 e
b0 j
b0 T
b0 c
09
b0 P
b0 b
b0 X
b0 p
b0 &
b0 *
b0 5
b0 Q
b0 W
b0 q
b0 ^
b0 s
0%
0E
b0 D
b0 J
b0 \
b0 U
b0 l
b0 m
b0 r
b1000100 [
b0 #
b0 -
b0 /
b0 :
b0 <
b0 >
b0 M
b10000 ,
b1000100 ]
b1000100 Z
b1000000 $
b1000000 4
b1000000 a
bx '
bx )
bx .
bx O
1!
#15000
0!
#15500
b1001000 [
b10001 ,
b1001000 ]
b1001000 Z
b1000100 $
b1000100 4
b1000100 a
1!
#16000
0!
#16500
b1001100 [
b10010 ,
b1001100 ]
b1001100 Z
b1001000 $
b1001000 4
b1001000 a
1!
#17000
0!
#17500
b1010000 [
b10011 ,
b1010000 ]
b1010000 Z
b1001100 $
b1001100 4
b1001100 a
1!
#18000
0!
#18500
b1010100 [
b10100 ,
b1010100 ]
b1010100 Z
b1010000 $
b1010000 4
b1010000 a
1!
#19000
0!
#19500
b1011000 [
b10101 ,
b1011000 ]
b1011000 Z
b1010100 $
b1010100 4
b1010100 a
1!
#20000
0!
#20500
b1011100 [
b10110 ,
b1011100 ]
b1011100 Z
b1011000 $
b1011000 4
b1011000 a
1!
#21000
0!
#21500
b1100000 [
b10111 ,
b1100000 ]
b1100000 Z
b1011100 $
b1011100 4
b1011100 a
1!
#22000
0!
#22500
b1100100 [
b11000 ,
b1100100 ]
b1100100 Z
b1100000 $
b1100000 4
b1100000 a
1!
#23000
0!
#23500
b1101000 [
b11001 ,
b1101000 ]
b1101000 Z
b1100100 $
b1100100 4
b1100100 a
1!
#24000
0!
#24500
b1101100 [
b11010 ,
b1101100 ]
b1101100 Z
b1101000 $
b1101000 4
b1101000 a
1!
#25000
0!
#25500
b1110000 [
b11011 ,
b1110000 ]
b1110000 Z
b1101100 $
b1101100 4
b1101100 a
1!
#26000
0!
#26500
b1110100 [
b11100 ,
b1110100 ]
b1110100 Z
b1110000 $
b1110000 4
b1110000 a
1!
#27000
0!
#27500
b1111000 [
b11101 ,
b1111000 ]
b1111000 Z
b1110100 $
b1110100 4
b1110100 a
1!
#28000
0!
#28500
b1111100 [
b11110 ,
b1111100 ]
b1111100 Z
b1111000 $
b1111000 4
b1111000 a
1!
#29000
0!
#29500
b10000000 [
b11111 ,
b10000000 ]
b10000000 Z
b1111100 $
b1111100 4
b1111100 a
1!
#30000
0!
#30500
b10000100 [
b100000 ,
b10000100 ]
b10000100 Z
b10000000 $
b10000000 4
b10000000 a
1!
#31000
0!
#31500
b10001000 [
b100001 ,
b10001000 ]
b10001000 Z
b10000100 $
b10000100 4
b10000100 a
1!
#32000
0!
#32500
b10001100 [
b100010 ,
b10001100 ]
b10001100 Z
b10001000 $
b10001000 4
b10001000 a
1!
#33000
0!
#33500
b10010000 [
b100011 ,
b10010000 ]
b10010000 Z
b10001100 $
b10001100 4
b10001100 a
1!
#34000
0!
#34500
b10010100 [
b100100 ,
b10010100 ]
b10010100 Z
b10010000 $
b10010000 4
b10010000 a
1!
#35000
0!
#35500
b10011000 [
b100101 ,
b10011000 ]
b10011000 Z
b10010100 $
b10010100 4
b10010100 a
1!
#36000
0!
#36500
b10011100 [
b100110 ,
b10011100 ]
b10011100 Z
b10011000 $
b10011000 4
b10011000 a
1!
#37000
0!
#37500
b10100000 [
b100111 ,
b10100000 ]
b10100000 Z
b10011100 $
b10011100 4
b10011100 a
1!
#38000
0!
#38500
b10100100 [
b101000 ,
b10100100 ]
b10100100 Z
b10100000 $
b10100000 4
b10100000 a
1!
#39000
0!
#39500
b10101000 [
b101001 ,
b10101000 ]
b10101000 Z
b10100100 $
b10100100 4
b10100100 a
1!
#40000
0!
#40500
b10101100 [
b101010 ,
b10101100 ]
b10101100 Z
b10101000 $
b10101000 4
b10101000 a
1!
#41000
0!
#41500
b10110000 [
b101011 ,
b10110000 ]
b10110000 Z
b10101100 $
b10101100 4
b10101100 a
1!
#42000
0!
#42500
b10110100 [
b101100 ,
b10110100 ]
b10110100 Z
b10110000 $
b10110000 4
b10110000 a
1!
#43000
0!
#43500
b10111000 [
b101101 ,
b10111000 ]
b10111000 Z
b10110100 $
b10110100 4
b10110100 a
1!
#44000
0!
#44500
b10111100 [
b101110 ,
b10111100 ]
b10111100 Z
b10111000 $
b10111000 4
b10111000 a
1!
#45000
0!
#45500
b11000000 [
b101111 ,
b11000000 ]
b11000000 Z
b10111100 $
b10111100 4
b10111100 a
1!
#46000
0!
#46500
b11000100 [
b110000 ,
b11000100 ]
b11000100 Z
b11000000 $
b11000000 4
b11000000 a
1!
#47000
0!
#47500
b11001000 [
b110001 ,
b11001000 ]
b11001000 Z
b11000100 $
b11000100 4
b11000100 a
1!
#48000
0!
#48500
b11001100 [
b110010 ,
b11001100 ]
b11001100 Z
b11001000 $
b11001000 4
b11001000 a
1!
#49000
0!
#49500
b11010000 [
b110011 ,
b11010000 ]
b11010000 Z
b11001100 $
b11001100 4
b11001100 a
1!
#50000
0!
#50500
b11010100 [
b110100 ,
b11010100 ]
b11010100 Z
b11010000 $
b11010000 4
b11010000 a
1!
#51000
0!
#51500
b11011000 [
b110101 ,
b11011000 ]
b11011000 Z
b11010100 $
b11010100 4
b11010100 a
1!
#52000
0!
#52500
b11011100 [
b110110 ,
b11011100 ]
b11011100 Z
b11011000 $
b11011000 4
b11011000 a
1!
#53000
0!
#53500
b11100000 [
b110111 ,
b11100000 ]
b11100000 Z
b11011100 $
b11011100 4
b11011100 a
1!
#54000
0!
#54500
b11100100 [
b111000 ,
b11100100 ]
b11100100 Z
b11100000 $
b11100000 4
b11100000 a
1!
#55000
0!
#55500
b11101000 [
b111001 ,
b11101000 ]
b11101000 Z
b11100100 $
b11100100 4
b11100100 a
1!
#56000
0!
#56500
b11101100 [
b111010 ,
b11101100 ]
b11101100 Z
b11101000 $
b11101000 4
b11101000 a
1!
#57000
0!
#57500
b11110000 [
b111011 ,
b11110000 ]
b11110000 Z
b11101100 $
b11101100 4
b11101100 a
1!
#58000
0!
#58500
b11110100 [
b111100 ,
b11110100 ]
b11110100 Z
b11110000 $
b11110000 4
b11110000 a
1!
#59000
0!
#59500
b11111000 [
b111101 ,
b11111000 ]
b11111000 Z
b11110100 $
b11110100 4
b11110100 a
1!
#60000
0!
#60500
b11111100 [
b111110 ,
b11111100 ]
b11111100 Z
b11111000 $
b11111000 4
b11111000 a
1!
#61000
0!
#61500
b100000000 [
b111111 ,
b100000000 ]
b100000000 Z
b11111100 $
b11111100 4
b11111100 a
1!
#62000
0!
#62500
b101 V
b101 o
0R
b101 (
b101 +
b101 6
b101 K
b101 `
b101 h
b101 j
b101 f
b11111111111111111111111111111010 g
b101 k
19
10
b10 S
b10 n
b101 T
b101 c
b101 &
b101 *
b101 5
b101 Q
b101 W
b101 q
b101 ^
b101 s
1I
b1000 D
b101 J
b10000000000000010100 \
b10 U
b10 m
b101 r
b100000100 [
b100000000000100000000000000101 #
b100000000000100000000000000101 -
b100000000000100000000000000101 /
b100000000000100000000000000101 :
b100000000000100000000000000101 <
b100000000000100000000000000101 >
b100000000000100000000000000101 M
b0 ,
b100011000 ]
b100000100 Z
b100000000 $
b100000000 4
b100000000 a
1!
#63000
0!
#63500
b11 V
b11 o
b11 (
b11 +
b11 6
b11 K
b11 `
b11 h
b11 j
b11 f
b11111111111111111111111111111100 g
b11 k
b111 S
b111 n
b11 T
b11 c
b111 &
b111 *
b111 5
b111 Q
b111 W
b111 q
b11 ^
b11 s
b11 J
b111000000000000001100 \
b111 U
b111 m
b11 r
b100001000 [
b100000000001110000000000000011 #
b100000000001110000000000000011 -
b100000000001110000000000000011 /
b100000000001110000000000000011 :
b100000000001110000000000000011 <
b100000000001110000000000000011 >
b100000000001110000000000000011 M
b1 ,
b100010100 ]
b100001000 Z
b100000100 $
b100000100 4
b100000100 a
1!
#64000
0!
#64500
b1100 V
b1100 o
b1100 (
b1100 +
b1100 6
b1100 K
b1100 `
b1100 h
b1100 j
b1100 f
b11111111111111111111111111110011 g
b1100 k
b11 S
b11 n
b1100 T
b1100 c
b1100 ^
b1100 s
b1100 J
b11000000000000110000 \
b11 U
b11 m
b1100 r
b100001100 [
b100000000000110000000000001100 #
b100000000000110000000000001100 -
b100000000000110000000000001100 /
b100000000000110000000000001100 :
b100000000000110000000000001100 <
b100000000000110000000000001100 >
b100000000000110000000000001100 M
b10 ,
b1100 &
b1100 *
b1100 5
b1100 Q
b1100 W
b1100 q
b100111100 ]
b100001100 Z
b100001000 $
b100001000 4
b100001000 a
1!
#65000
0!
#65500
b111 V
b111 o
b1 e
b111 (
b111 +
b111 6
b111 K
b111 `
b111 h
11
b11111111111111111111111111111010 g
b101 k
09
10
b100 S
b100 n
b111 f
b1000 j
b101 T
b101 c
1A
b11 P
b11 b
b11 X
b11 p
b101 &
b101 *
b101 5
b101 Q
b101 W
b101 q
b10000000100101 ^
b10000000100101 s
b1 8
b1 ;
b1 =
b1 L
b1 d
0I
b0 D
b100101 J
b11100010001000000010010100 \
b10 U
b100 Y
b111 l
b10 m
b10000000100101 r
b100010000 [
b111000100010000000100101 #
b111000100010000000100101 -
b111000100010000000100101 /
b111000100010000000100101 :
b111000100010000000100101 <
b111000100010000000100101 >
b111000100010000000100101 M
b11 ,
b1000000110100100 ]
b100010000 Z
b100001100 $
b100001100 4
b100001100 a
1!
#66000
0!
#66500
10
b100 V
b100 o
11
b11111111111111111111111111111000 g
b111 k
b100 (
b100 +
b100 6
b100 K
b100 `
b100 h
b101 S
b101 n
b100 e
b1111 f
b10011 j
b111 T
b111 c
1@
0A
b1100 P
b1100 b
b1100 X
b1100 p
b111 &
b111 *
b111 5
b111 Q
b111 W
b111 q
b10100000100100 ^
b10100000100100 s
b0 8
b0 ;
b0 =
b0 L
b0 d
b100100 J
b1100100001010000010010000 \
b100 U
b101 Y
b11 l
b100 m
b10100000100100 r
b100010100 [
b11001000010100000100100 #
b11001000010100000100100 -
b11001000010100000100100 /
b11001000010100000100100 :
b11001000010100000100100 <
b11001000010100000100100 >
b11001000010100000100100 M
b100 ,
b1010000110100100 ]
b100010100 Z
b100010000 $
b100010000 4
b100010000 a
1!
#67000
0!
#67500
b101 S
b101 n
10
11
b1011 V
b1011 o
0R
b1011 (
b1011 +
b1011 6
b1011 K
b1011 `
b1011 h
b111 f
b1011 j
1?
0@
b100 P
b100 b
b100 X
b100 p
b10100000100000 ^
b10100000100000 s
b10 8
b10 ;
b10 =
b10 L
b10 d
b100000 J
b10100100001010000010000000 \
b101 l
b10100000100000 r
b100011000 [
b101001000010100000100000 #
b101001000010100000100000 -
b101001000010100000100000 /
b101001000010100000100000 :
b101001000010100000100000 <
b101001000010100000100000 >
b101001000010100000100000 M
b101 ,
b1010000110011000 ]
b100011000 Z
b100010100 $
b100010100 4
b100010100 a
1!
#68000
0!
#68500
00
01
1_
b11111111111111111111111111111100 g
b11111111111111111111111111111100 k
b1000 V
b1000 o
b111 S
b111 n
b11 T
b11 c
b1000 (
b1000 +
b1000 6
b1000 K
b1000 `
b1000 h
0?
b11 &
b11 *
b11 5
b11 Q
b11 W
b11 q
b1000 ^
b1000 s
b110 8
b110 ;
b110 =
b110 L
b110 d
17
1H
b100 D
b1000 J
b10100111000000000000100000 \
b111 U
b0 Y
b111 m
b1000 r
b100011100 [
b10000101001110000000000001000 #
b10000101001110000000000001000 -
b10000101001110000000000001000 /
b10000101001110000000000001000 :
b10000101001110000000000001000 <
b10000101001110000000000001000 >
b10000101001110000000000001000 M
b1000 e
b11111111111111111111111111111111 f
b1000 j
b110 ,
b1011 P
b1011 b
b1011 X
b1011 p
b100111100 ]
b100011100 Z
b100011000 $
b100011000 4
b100011000 a
1!
#69000
0!
#69500
b0 V
b0 o
1R
b0 (
b0 +
b0 6
b0 K
b0 `
b0 h
10
b11111111111111111111111111111000 k
b11111111111111111111111111111000 g
11
b110 S
b110 n
b1000 e
b11111111111111111111111111111100 f
b101 j
b111 T
b111 c
1B
b1100 P
b1100 b
b1100 X
b1100 p
b111 &
b111 *
b111 5
b111 Q
b111 W
b111 q
b11000000101010 ^
b11000000101010 s
b111 8
b111 ;
b111 =
b111 L
b111 d
07
0H
b0 D
b101010 J
b1100100001100000010101000 \
b100 U
b110 Y
b11 l
b100 m
b11000000101010 r
b100100000 [
b11001000011000000101010 #
b11001000011000000101010 -
b11001000011000000101010 /
b11001000011000000101010 :
b11001000011000000101010 <
b11001000011000000101010 >
b11001000011000000101010 M
b111 ,
b1100000111001000 ]
b100100000 Z
b100011100 $
b100011100 4
b100011100 a
1!
#70000
0!
